Series system with exponentially distributed component lifetimes • series.system.estimation.masked.data
…
      exponential.Rmd

Introduction

The R package series.system.estimation.masked.data is a framework for estimating the parameters of latent component lifetimes from masked data in a series system.

Masked data

Masked data is given by an i.i.d. sample of system lifetime data and plausible candidate sets that contain the failed node.

The R package series.system.estimation.masked.data contains several simulated masked data sets. For example, a series system with \(3\) exponentially distributed component lifetimes is stored in exp_series_md_1:

print(exp_series_md_1)
#> Latent variables:  k t1 t2 t3 
#> # A tibble: 1,000 × 8
#>          t     k      t1      t2     t3 x1    x2    x3   
#>      <dbl> <dbl>   <dbl>   <dbl>  <dbl> <lgl> <lgl> <lgl>
#>  1 0.144       2 0.281   0.144   0.266  TRUE  TRUE  FALSE
#>  2 0.0105      1 0.0105  0.0141  0.0633 TRUE  FALSE TRUE 
#>  3 0.0363      2 0.105   0.0363  0.545  TRUE  TRUE  FALSE
#>  4 0.00972     1 0.00972 0.251   0.0960 TRUE  FALSE TRUE 
#>  5 0.0377      3 0.0937  0.0943  0.0377 TRUE  FALSE TRUE 
#>  6 0.0958      3 0.283   0.391   0.0958 FALSE TRUE  TRUE 
#>  7 0.169       3 0.197   1.01    0.169  FALSE TRUE  TRUE 
#>  8 0.270       3 0.322   0.371   0.270  FALSE TRUE  TRUE 
#>  9 0.299       3 0.390   0.401   0.299  TRUE  FALSE TRUE 
#> 10 0.00794     2 0.524   0.00794 0.120  FALSE TRUE  TRUE 
#> # … with 990 more rows
…
theta <- c(1,1.25,1.75)
m <- length(theta)

\(\boldsymbol{\theta }= (1, 1.25, 1.75)'\). Then, the component assigned to index \(j\) has an exponentially distributed lifetime with a failure rate \(\theta_j\), e.g., \(\theta_2 = 1.25\) is the failure rate of the component indexed by \(2\).

Let’s simulate generating the lifetimes of \(n=300\) of these series systems:

n <- 500000
md <- tibble(t1=rexp(n,theta[1]),
             t2=rexp(n,theta[2]),
             t3=rexp(n,theta[3])) %>%
    md_series_lifetime()
print(md)
#> # A tibble: 500,000 × 5
#>        t1    t2    t3     k      t
#>     <dbl> <dbl> <dbl> <int>  <dbl>
#>  1 0.0880 0.242 0.368     1 0.0880
#>  2 0.875  0.593 2.35      2 0.593 
#>  3 1.21   0.304 0.426     2 0.304 
#>  4 0.346  1.39  0.310     3 0.310 
#>  5 1.37   0.939 0.179     3 0.179 
#>  6 0.0472 0.684 0.202     1 0.0472
#>  7 2.68   0.319 0.461     2 0.319 
#>  8 0.304  0.355 0.502     1 0.304 
#>  9 0.732  0.345 1.51      2 0.345 
#> 10 0.355  0.674 2.21      1 0.355 
#> # … with 499,990 more rows
…
Right-censoring

We simulate right-censoring, with a right-censoring time chosen by the probability \(\Pr\{T_i > \tau\} = 0.75\), with:

q <- 0.25
tau <- rep(-(1/sum(theta))*log(q),n)
md <- md %>% md_series_lifetime_right_censoring(tau)

Masked component cause of failure (candidate sets)

We simulate candidate sets using the Bernoulli candidate model with an appropriate set of parameters to satisfy conditions \(C_1\), \(C_2\), and \(C_3\):

md <- md %>% md_bernoulli_candidate_C1_C2_C3(m, function(n) rep(.3,n))
print(md)
#> # A tibble: 500,000 × 11
#>        t1    t2    t3     k      t   tau      s delta x1    x2    x3   
#>     <dbl> <dbl> <dbl> <int>  <dbl> <dbl>  <dbl> <lgl> <lgl> <lgl> <lgl>
#>  1 0.0880 0.242 0.368     1 0.0880 0.347 0.0880 FALSE TRUE  FALSE FALSE
#>  2 0.875  0.593 2.35      2 0.593  0.347 0.347  TRUE  FALSE TRUE  FALSE
#>  3 1.21   0.304 0.426     2 0.304  0.347 0.304  FALSE TRUE  TRUE  FALSE
#>  4 0.346  1.39  0.310     3 0.310  0.347 0.310  FALSE FALSE TRUE  TRUE 
#>  5 1.37   0.939 0.179     3 0.179  0.347 0.179  FALSE FALSE FALSE TRUE 
#>  6 0.0472 0.684 0.202     1 0.0472 0.347 0.0472 FALSE TRUE  TRUE  FALSE
#>  7 2.68   0.319 0.461     2 0.319  0.347 0.319  FALSE FALSE TRUE  FALSE
#>  8 0.304  0.355 0.502     1 0.304  0.347 0.304  FALSE TRUE  FALSE TRUE 
#>  9 0.732  0.345 1.51      2 0.345  0.347 0.345  FALSE FALSE TRUE  TRUE 
#> 10 0.355  0.674 2.21      1 0.355  0.347 0.347  TRUE  TRUE  FALSE TRUE 
#> # … with 499,990 more rows
…
