General series system with component lifetimes that are in different parametric families • series.system.estimation.masked.data
…
print(theta)
#> [1] 100.000   2.007 200.000   2.004   0.347
tau <- 1.975
md <- tibble(t1=rweibull(n,theta[1],theta[2]),
             t2=rweibull(n,theta[3],theta[4]),
             t3=rexp(n,theta[5])) %>%
    md_series_lifetime() %>%
    md_series_lifetime_right_censoring(tau=tau) %>%
    md_bernoulli_candidate_C1_C2_C3(m, function(n) rep(.25,n))
#> Warning: The `x` argument of `as_tibble.matrix()` must have unique column names if `.name_repair` is omitted as of tibble 2.0.0.
#> Using compatibility `.name_repair`.
#> This warning is displayed once every 8 hours.
#> Call `lifecycle::last_lifecycle_warnings()` to see where this warning was generated.
print(md)
#> # A tibble: 500 × 11
#>       t1    t2     t3     k     t   tau     s delta x1    x2    x3   
#>    <dbl> <dbl>  <dbl> <int> <dbl> <dbl> <dbl> <lgl> <lgl> <lgl> <lgl>
#>  1  2.00  2.00  3.75      1 2.00   1.98 1.98  TRUE  TRUE  TRUE  FALSE
#>  2  1.98  1.98  0.618     3 0.618  1.98 0.618 FALSE TRUE  TRUE  TRUE 
#>  3  1.97  2.00 10.2       1 1.97   1.98 1.97  FALSE TRUE  FALSE FALSE
#>  4  1.99  2.00  6.21      1 1.99   1.98 1.98  TRUE  TRUE  FALSE FALSE
#>  5  1.96  2.00  7.40      1 1.96   1.98 1.96  FALSE TRUE  FALSE FALSE
#>  6  1.97  1.99  2.69      1 1.97   1.98 1.97  FALSE TRUE  FALSE TRUE 
#>  7  2.01  1.99  0.716     3 0.716  1.98 0.716 FALSE FALSE FALSE TRUE 
#>  8  1.98  2.00  2.16      1 1.98   1.98 1.98  TRUE  TRUE  FALSE FALSE
#>  9  2.01  1.99  1.69      3 1.69   1.98 1.69  FALSE FALSE FALSE TRUE 
#> 10  1.98  1.98  1.09      3 1.09   1.98 1.09  FALSE FALSE FALSE TRUE 
#> # … with 490 more rows
…
